…
We can use the vector to extract all these spectra as a collection.

``` r
filters.mspct[polyester_filters]
#> Object: filter_mspct [2 x 1]
#> --- Member: Foiltek_Clear_PET_G ---
#> Object: filter_spct [911 x 2]
#> Wavelength range 190 to 1100 nm, step 1 nm 
#> Label: ; clear sheet; new 
#> 
#> # A tibble: 911 x 2
#>    w.length      Tfr
#>       <dbl>    <dbl>
#>  1      190 0.000101
#>  2      191 0.000109
#>  3      192 0.000108
#>  4      193 0.000101
#>  5      194 0.000100
#>  6      195 0.000100
#>  7      196 0.000100
#>  8      197 0.000100
#>  9      198 0.000100
#> 10      199 0.000100
#> # ... with 901 more rows
#> --- Member: McDermit_PET_Autostat_CT5_125um ---
#> Object: filter_spct [611 x 2]
#> Wavelength range 190 to 800 nm, step 1 nm 
#> Label: Polyester, clear film, 0.000125 m thick, Autostat CT5 from McDermit Autotype; new 
#> 
#> # A tibble: 611 x 2
#>    w.length   Tfr
#>       <int> <dbl>
#>  1      190 0.011
#>  2      191 0.01 
#>  3      192 0.011
#>  4      193 0.015
#>  5      194 0.016
#>  6      195 0.012
#>  7      196 0.011
#>  8      197 0.011
#>  9      198 0.011
#> 10      199 0.011
#> # ... with 601 more rows
…
