User Guide 1: The data and how to use them
…
We can use a character string with the name as an index to extract an
individual spectrum.

filters.mspct$Schott_UG11

## Object: filter_spct [702 x 2]
## Wavelength range 200-5200 nm, step 1-50 nm 
## Label: SCHOTT UG11 1mm-thick 
## Transmittance of type 'internal'
## Rfr (/1): 0.092, thickness (mm): 1.00, attenuation mode: absorption.
## 
## # A tibble: 702 × 2
##    w.length     Tfr
##       <dbl>   <dbl>
##  1      200 0.00001
##  2      204 0.00001
##  3      208 0.00001
##  4      210 0.00001
##  5      211 0.00001
##  6      212 0.00001
##  7      213 0.00001
##  8      214 0.00001
##  9      215 0.00001
## 10      216 0.00001
## # ℹ 692 more rows

filters.mspct[["Schott_UG11"]]

## Object: filter_spct [702 x 2]
## Wavelength range 200-5200 nm, step 1-50 nm 
## Label: SCHOTT UG11 1mm-thick 
## Transmittance of type 'internal'
## Rfr (/1): 0.092, thickness (mm): 1.00, attenuation mode: absorption.
## 
## # A tibble: 702 × 2
##    w.length     Tfr
##       <dbl>   <dbl>
##  1      200 0.00001
##  2      204 0.00001
##  3      208 0.00001
##  4      210 0.00001
##  5      211 0.00001
##  6      212 0.00001
##  7      213 0.00001
##  8      214 0.00001
##  9      215 0.00001
## 10      216 0.00001
## # ℹ 692 more rows
…
filters.mspct["Schott_UG11"]

## Object: filter_mspct [1 x 1]
## --- Member: Schott_UG11 ---
## Object: filter_spct [702 x 2]
## Wavelength range 200-5200 nm, step 1-50 nm 
## Label: SCHOTT UG11 1mm-thick 
## Transmittance of type 'internal'
## Rfr (/1): 0.092, thickness (mm): 1.00, attenuation mode: absorption.
## 
## # A tibble: 702 × 2
##    w.length     Tfr
##       <dbl>   <dbl>
##  1      200 0.00001
##  2      204 0.00001
##  3      208 0.00001
##  4      210 0.00001
##  5      211 0.00001
##  6      212 0.00001
##  7      213 0.00001
##  8      214 0.00001
##  9      215 0.00001
## 10      216 0.00001
## # ℹ 692 more rows
## 
## --- END ---
…
filters.mspct[petri_dishes]

## Object: filter_mspct [3 x 1]
## --- Member: glass_nn ---
## Object: filter_spct [324 x 2]
## Wavelength range 190-1100 nm, step 1-4 nm 
## Label: Petri dish lid;  glass 
## Transmittance of type 'total'
## Rfr (/1): 0.080, thickness (mm): NA, attenuation mode: absorption.
## 
## # A tibble: 324 × 2
##    w.length      Tfr
##       <int>    <dbl>
##  1      190 0.000142
##  2      194 0.000129
##  3      198 0.000117
##  4      202 0.000105
##  5      206 0.000102
##  6      207 0.000102
##  7      210 0.000103
##  8      214 0.000106
##  9      218 0.000106
## 10      219 0.000106
## # ℹ 314 more rows
## --- Member: PS_Sterilin101 ---
## Object: filter_spct [331 x 2]
## Wavelength range 190-1100 nm, step 1-4 nm 
## Label: Petri dish lid;  polystyrene;  Sterilin101 
## Transmittance of type 'total'
## Rfr (/1): 0.104, thickness (mm): NA, attenuation mode: absorption.
## 
## # A tibble: 331 × 2
##    w.length      Tfr
##       <int>    <dbl>
##  1      190 0.000127
##  2      194 0.000119
##  3      198 0.000111
##  4      202 0.000105
##  5      206 0.000100
##  6      207 0.000100
##  7      208 0.000100
##  8      210 0.000100
##  9      214 0.000106
## 10      218 0.000108
## # ℹ 321 more rows
## --- Member: PS_Sterilin109 ---
## Object: filter_spct [314 x 2]
## Wavelength range 190-1100 nm, step 1-4 nm 
## Label: Petri dish lid;  polystyrene;  Sterilin109 
## Transmittance of type 'total'
## Rfr (/1): 0.098, thickness (mm): NA, attenuation mode: absorption.
## 
## # A tibble: 314 × 2
##    w.length      Tfr
##       <int>    <dbl>
##  1      190 0.000134
##  2      194 0.000124
##  3      198 0.000115
##  4      202 0.000104
##  5      206 0.000106
##  6      210 0.000108
##  7      213 0.000112
##  8      214 0.000112
##  9      218 0.000112
## 10      222 0.000107
## # ℹ 304 more rows
## 
## --- END ---
…
filters.mspct[grep("UG", names(filters.mspct))]

## Object: filter_mspct [5 x 1]
## --- Member: Schott_UG1 ---
## Object: filter_spct [613 x 2]
## Wavelength range 258-5200 nm, step 1-50 nm 
## Label: SCHOTT UG1 1mm-thick 
## Transmittance of type 'internal'
## Rfr (/1): 0.086, thickness (mm): 1.00, attenuation mode: absorption.
## 
## # A tibble: 613 × 2
##    w.length      Tfr
##       <dbl>    <dbl>
##  1      258 4.30e-12
##  2      262 2.63e- 9
##  3      266 2.96e- 7
##  4      270 9.86e- 6
##  5      274 1.45e- 4
##  6      278 1.05e- 3
##  7      279 1.60e- 3
##  8      280 2.38e- 3
##  9      281 3.43e- 3
## 10      282 4.81e- 3
## # ℹ 603 more rows
## --- Member: Schott_UG11 ---
## Object: filter_spct [702 x 2]
## Wavelength range 200-5200 nm, step 1-50 nm 
## Label: SCHOTT UG11 1mm-thick 
## Transmittance of type 'internal'
## Rfr (/1): 0.092, thickness (mm): 1.00, attenuation mode: absorption.
## 
## # A tibble: 702 × 2
##    w.length     Tfr
##       <dbl>   <dbl>
##  1      200 0.00001
##  2      204 0.00001
##  3      208 0.00001
##  4      210 0.00001
##  5      211 0.00001
##  6      212 0.00001
##  7      213 0.00001
##  8      214 0.00001
##  9      215 0.00001
## 10      216 0.00001
## # ℹ 692 more rows
## --- Member: Schott_UG2A ---
## Object: filter_spct [653 x 2]
## Wavelength range 269-5200 nm, step 1-55 nm 
## Label: SCHOTT UG2A 3.25mm-thick 
## Transmittance of type 'internal'
## Rfr (/1): 0.082, thickness (mm): 3.25, attenuation mode: absorption.
## 
## # A tibble: 653 × 2
##    w.length      Tfr
##       <dbl>    <dbl>
##  1      269 4.12e-22
##  2      273 1.54e-16
##  3      277 3.15e-12
##  4      281 4.69e- 9
##  5      285 8.80e- 7
##  6      289 3.98e- 5
##  7      293 6.29e- 4
##  8      294 1.09e- 3
##  9      295 1.84e- 3
## 10      296 2.95e- 3
## # ℹ 643 more rows
## --- Member: Schott_UG5 ---
## Object: filter_spct [647 x 2]
## Wavelength range 200-5200 nm, step 1-50 nm 
## Label: SCHOTT UG5 1mm-thick 
## Transmittance of type 'internal'
## Rfr (/1): 0.086, thickness (mm): 1.00, attenuation mode: absorption.
## 
## # A tibble: 647 × 2
##    w.length      Tfr
##       <dbl>    <dbl>
##  1      200 0.00001 
##  2      204 0.00001 
##  3      208 0.00001 
##  4      212 0.000315
##  5      213 0.000817
##  6      214 0.00200 
##  7      215 0.00452 
##  8      216 0.0109  
##  9      217 0.0209  
## 10      218 0.0335  
## # ℹ 637 more rows
## --- Member: UQG_UG1_2mm ---
## Object: filter_spct [393 x 2]
## Wavelength range 190-1020 nm, step 1-4 nm 
## Label: Glass filter: UQG UG1 2mm 
## Transmittance of type 'total'
## Rfr (/1): 0.077, thickness (mm): 2.00, attenuation mode: absorption.
## 
## # A tibble: 393 × 2
##    w.length      Tfr
##       <dbl>    <dbl>
##  1      190 0.000112
##  2      194 0.000107
##  3      198 0.000102
##  4      202 0.000102
##  5      206 0.000101
##  6      210 0.000100
##  7      214 0.000100
##  8      218 0.000100
##  9      220 0.000100
## 10      221 0.000100
## # ℹ 383 more rows
## 
## --- END ---
…
filters.mspct$Schott_UG11

## Object: filter_spct [702 x 2]
## Wavelength range 200-5200 nm, step 1-50 nm 
## Label: SCHOTT UG11 1mm-thick 
## Transmittance of type 'internal'
## Rfr (/1): 0.092, thickness (mm): 1.00, attenuation mode: absorption.
## 
## # A tibble: 702 × 2
##    w.length     Tfr
##       <dbl>   <dbl>
##  1      200 0.00001
##  2      204 0.00001
##  3      208 0.00001
##  4      210 0.00001
##  5      211 0.00001
##  6      212 0.00001
##  7      213 0.00001
##  8      214 0.00001
##  9      215 0.00001
## 10      216 0.00001
## # ℹ 692 more rows
…
When metatdata are available and the mode of attenuation is
"absorption" it is possible to compute the expected
transmittance for a different thickness of the material. In the example
we compute transmittance for a thickness of 4 mm.

convertThickness(filters.mspct$Schott_UG11, thickness = 4e-3)

## Object: filter_spct [702 x 2]
## Wavelength range 200-5200 nm, step 1-50 nm 
## Label: SCHOTT UG11 1mm-thick 
## Transmittance of type 'internal'
## Rfr (/1): 0.092, thickness (mm): 4.00, attenuation mode: absorption.
## 
## # A tibble: 702 × 2
##    w.length   Tfr
##       <dbl> <dbl>
##  1      200 1e-20
##  2      204 1e-20
##  3      208 1e-20
##  4      210 1e-20
##  5      211 1e-20
##  6      212 1e-20
##  7      213 1e-20
##  8      214 1e-20
##  9      215 1e-20
## 10      216 1e-20
## # ℹ 692 more rows

We can also convert "internal" transmittance into
"total" transmittance.

convertTfrType(filters.mspct$Schott_UG11, Tfr.type = "total")

## Object: filter_spct [702 x 2]
## Wavelength range 200-5200 nm, step 1-50 nm 
## Label: SCHOTT UG11 1mm-thick 
## Transmittance of type 'total'
## Rfr (/1): 0.092, thickness (mm): 1.00, attenuation mode: absorption.
## 
## # A tibble: 702 × 2
##    w.length        Tfr
##       <dbl>      <dbl>
##  1      200 0.00000908
##  2      204 0.00000908
##  3      208 0.00000908
##  4      210 0.00000908
##  5      211 0.00000908
##  6      212 0.00000908
##  7      213 0.00000908
##  8      214 0.00000908
##  9      215 0.00000908
## 10      216 0.00000908
## # ℹ 692 more rows

Conversion between transmittance, absorptance and absorbance is also
possible. In package ‘photobiology’ fractions of one are used to express
transmittance, reflectance and absorptance.

any2Afr(filters.mspct$Schott_UG11, action = "replace")

## Object: filter_spct [702 x 2]
## Wavelength range 200-5200 nm, step 1-50 nm 
## Label: SCHOTT UG11 1mm-thick 
## Rfr (/1): 0.092, thickness (mm): 1.00, attenuation mode: absorption.
## 
## # A tibble: 702 × 2
##    w.length   Afr
##       <dbl> <dbl>
##  1      200  1.00
##  2      204  1.00
##  3      208  1.00
##  4      210  1.00
##  5      211  1.00
##  6      212  1.00
##  7      213  1.00
##  8      214  1.00
##  9      215  1.00
## 10      216  1.00
## # ℹ 692 more rows

For expressing absorbance, base-10 logarithms are used. In some
fields, natural logarithms are used instead. Expressing A
on this base is not supported by this package and any input absorbances
must be first converted to log10 based A.

any2A(filters.mspct$Schott_UG11, action = "replace")

## Object: filter_spct [702 x 2]
## Wavelength range 200-5200 nm, step 1-50 nm 
## Label: SCHOTT UG11 1mm-thick 
## Rfr (/1): 0.092, thickness (mm): 1.00, attenuation mode: absorption.
## 
## # A tibble: 702 × 2
##    w.length     A
##       <dbl> <dbl>
##  1      200     5
##  2      204     5
##  3      208     5
##  4      210     5
##  5      211     5
##  6      212     5
##  7      213     5
##  8      214     5
##  9      215     5
## 10      216     5
## # ℹ 692 more rows
…
